Get park calendar — park_calendar • themeparks
…
    Return a list of park information.

park_calendar(park)

    Arguments

      park
      Park ID, see parks()

    Examples

park_calendar("WaltDisneyWorldMagicKingdom")

#> → https://api.themeparks.wiki/preview/parks/WaltDisneyWorldMagicKingdom/calendar
#> # A tibble: 77 × 5
#>    date       type      closingTime               openingTime        special    
#>    <chr>      <chr>     <chr>                     <chr>              <list>     
#>  1 2021-08-01 Operating 2021-08-01T22:00:00-04:00 2021-08-01T09:00:… <named lis…
#>  2 2021-08-02 Operating 2021-08-02T22:00:00-04:00 2021-08-02T08:00:… <named lis…
#>  3 2021-08-03 Operating 2021-08-03T22:00:00-04:00 2021-08-03T08:00:… <named lis…
#>  4 2021-08-04 Operating 2021-08-04T22:00:00-04:00 2021-08-04T08:00:… <named lis…
#>  5 2021-08-05 Operating 2021-08-05T22:00:00-04:00 2021-08-05T08:00:… <named lis…
#>  6 2021-08-06 Operating 2021-08-06T22:00:00-04:00 2021-08-06T08:00:… <named lis…
#>  7 2021-08-07 Operating 2021-08-07T22:00:00-04:00 2021-08-07T08:00:… <named lis…
#>  8 2021-08-08 Operating 2021-08-08T22:00:00-04:00 2021-08-08T09:00:… <named lis…
#>  9 2021-08-09 Operating 2021-08-09T22:00:00-04:00 2021-08-09T09:00:… <named lis…
#> 10 2021-08-10 Operating 2021-08-10T21:00:00-04:00 2021-08-10T09:00:… <named lis…
#> # … with 67 more rows
…
